EESchema Schematic File Version 2
LIBS:tp5-rescue
LIBS:power
LIBS:device
LIBS:transistors
LIBS:conn
LIBS:linear
LIBS:regul
LIBS:74xx
LIBS:cmos4000
LIBS:adc-dac
LIBS:memory
LIBS:xilinx
LIBS:microcontrollers
LIBS:dsp
LIBS:microchip
LIBS:analog_switches
LIBS:motorola
LIBS:texas
LIBS:intel
LIBS:audio
LIBS:interface
LIBS:digital-audio
LIBS:philips
LIBS:display
LIBS:cypress
LIBS:siliconi
LIBS:opto
LIBS:atmel
LIBS:contrib
LIBS:valves
LIBS:lm2596
LIBS:LPC4337JBD144
LIBS:24lc64
LIBS:ESP8266
LIBS:bme280
LIBS:switches
LIBS:ky-040_encoder
LIBS:tp5-cache
EELAYER 25 0
EELAYER END
$Descr A3 16535 11693
encoding utf-8
Sheet 3 5
Title ""
Date ""
Rev ""
Comp ""
Comment1 ""
Comment2 ""
Comment3 ""
Comment4 ""
$EndDescr
$Comp
L LPC4337JBD144 U3
U 1 1 57657722
P 7600 6650
F 0 "U3" H 8600 3750 60  0000 C CNN
F 1 "LPC4337JBD144" H 8900 3650 60  0000 C CNN
F 2 "Housings_QFP:LQFP-144_20x20mm_Pitch0.5mm" H 7500 10600 60  0001 C CNN
F 3 "" H 7500 10600 60  0000 C CNN
	1    7600 6650
	1    0    0    -1  
$EndComp
$Comp
L +3.3V #PWR022
U 1 1 57657CBF
P 5900 1000
F 0 "#PWR022" H 5900 850 50  0001 C CNN
F 1 "+3.3V" H 5900 1140 50  0000 C CNN
F 2 "" H 5900 1000 50  0000 C CNN
F 3 "" H 5900 1000 50  0000 C CNN
	1    5900 1000
	1    0    0    -1  
$EndComp
Wire Wire Line
	5900 1000 5900 1500
Wire Wire Line
	5900 1500 8400 1500
Wire Wire Line
	8400 1500 8400 1600
Connection ~ 7300 1500
Wire Wire Line
	8300 1350 8300 1600
Connection ~ 8300 1500
Wire Wire Line
	8200 1600 8200 1500
Connection ~ 8200 1500
Wire Wire Line
	8100 1350 8100 1600
Connection ~ 8100 1500
Wire Wire Line
	8000 1600 8000 1500
Connection ~ 8000 1500
Wire Wire Line
	7900 1350 7900 1600
Connection ~ 7900 1500
Wire Wire Line
	7800 1600 7800 1500
Connection ~ 7800 1500
Wire Wire Line
	7700 1350 7700 1600
Connection ~ 7700 1500
Wire Wire Line
	7600 1600 7600 1500
Connection ~ 7600 1500
Wire Wire Line
	7500 1350 7500 1600
Connection ~ 7500 1500
Wire Wire Line
	7400 1600 7400 1500
Connection ~ 7400 1500
$Comp
L +3.3VADC #PWR023
U 1 1 57657A43
P 8650 1100
F 0 "#PWR023" H 8800 1050 50  0001 C CNN
F 1 "+3.3VADC" H 8650 1200 50  0000 C CNN
F 2 "" H 8650 1100 50  0000 C CNN
F 3 "" H 8650 1100 50  0000 C CNN
	1    8650 1100
	1    0    0    -1  
$EndComp
Wire Wire Line
	8650 1600 8650 1100
$Comp
L GNDA #PWR024
U 1 1 57657AAC
P 8000 9950
F 0 "#PWR024" H 8000 9700 50  0001 C CNN
F 1 "GNDA" H 8000 9800 50  0000 C CNN
F 2 "" H 8000 9950 50  0000 C CNN
F 3 "" H 8000 9950 50  0000 C CNN
	1    8000 9950
	1    0    0    -1  
$EndComp
Wire Wire Line
	8000 9800 8000 9950
Wire Wire Line
	8400 9800 8400 10250
Connection ~ 8000 9900
Wire Wire Line
	8200 9800 8200 9900
Connection ~ 8200 9900
$Comp
L GND #PWR025
U 1 1 57657B35
P 7600 9950
F 0 "#PWR025" H 7600 9700 50  0001 C CNN
F 1 "GND" H 7600 9800 50  0000 C CNN
F 2 "" H 7600 9950 50  0000 C CNN
F 3 "" H 7600 9950 50  0000 C CNN
	1    7600 9950
	1    0    0    -1  
$EndComp
Wire Wire Line
	7600 9800 7600 9950
Wire Wire Line
	7600 9900 7900 9900
Wire Wire Line
	7900 9900 7900 9800
Connection ~ 7600 9900
Wire Wire Line
	7800 9800 7800 9900
Connection ~ 7800 9900
Wire Wire Line
	7700 9800 7700 9900
Connection ~ 7700 9900
$Comp
L +3.3VADC #PWR026
U 1 1 57656BD8
P 5950 9200
F 0 "#PWR026" H 6100 9150 50  0001 C CNN
F 1 "+3.3VADC" H 5950 9300 50  0000 C CNN
F 2 "" H 5950 9200 50  0000 C CNN
F 3 "" H 5950 9200 50  0000 C CNN
	1    5950 9200
	1    0    0    -1  
$EndComp
$Comp
L R R1
U 1 1 576E9802
P 9700 7050
F 0 "R1" V 9780 7050 50  0000 C CNN
F 1 "4.7k" V 9700 7050 50  0000 C CNN
F 2 "Resistors_SMD:R_0805" V 9630 7050 50  0001 C CNN
F 3 "" H 9700 7050 50  0000 C CNN
	1    9700 7050
	1    0    0    -1  
$EndComp
$Comp
L R R2
U 1 1 576E9856
P 9950 7050
F 0 "R2" V 10030 7050 50  0000 C CNN
F 1 "4.7k" V 9950 7050 50  0000 C CNN
F 2 "Resistors_SMD:R_0805" V 9880 7050 50  0001 C CNN
F 3 "" H 9950 7050 50  0000 C CNN
	1    9950 7050
	1    0    0    -1  
$EndComp
$Comp
L +3.3V #PWR027
U 1 1 576E9881
P 9700 6900
F 0 "#PWR027" H 9700 6750 50  0001 C CNN
F 1 "+3.3V" H 9700 7040 50  0000 C CNN
F 2 "" H 9700 6900 50  0000 C CNN
F 3 "" H 9700 6900 50  0000 C CNN
	1    9700 6900
	1    0    0    -1  
$EndComp
$Comp
L +3.3V #PWR028
U 1 1 576E989B
P 9950 6900
F 0 "#PWR028" H 9950 6750 50  0001 C CNN
F 1 "+3.3V" H 9950 7040 50  0000 C CNN
F 2 "" H 9950 6900 50  0000 C CNN
F 3 "" H 9950 6900 50  0000 C CNN
	1    9950 6900
	1    0    0    -1  
$EndComp
Wire Wire Line
	9700 7200 9700 7400
Wire Wire Line
	9950 7200 9950 7300
Text Label 9400 7300 0    60   ~ 0
SCL
Text Label 9400 7400 0    60   ~ 0
SDA
Wire Wire Line
	9350 7300 10300 7300
Wire Wire Line
	9350 7400 10300 7400
NoConn ~ 9350 2000
NoConn ~ 9350 2100
NoConn ~ 9350 2200
NoConn ~ 9350 2300
NoConn ~ 9350 2400
NoConn ~ 9350 2500
NoConn ~ 9350 2600
NoConn ~ 9350 2700
NoConn ~ 9350 2850
Text HLabel 10300 7300 2    60   Input ~ 0
SCL
Text HLabel 10300 7400 2    60   Input ~ 0
SDA
Connection ~ 9950 7300
Connection ~ 9700 7400
Text HLabel 9850 3250 2    60   Input ~ 0
GPIO1_[FUNC2:_U0_TXD]
Text HLabel 9850 3350 2    60   Input ~ 0
GPIO2_[FUNC2:_U0_RXD]
Wire Wire Line
	9350 3250 9850 3250
Wire Wire Line
	9350 3350 9850 3350
NoConn ~ 9350 3050
NoConn ~ 9350 3150
NoConn ~ 9350 3450
NoConn ~ 9350 3550
NoConn ~ 9350 3650
NoConn ~ 9350 4050
NoConn ~ 9350 4200
NoConn ~ 9350 4300
NoConn ~ 9350 4400
NoConn ~ 9350 4500
NoConn ~ 9350 4600
NoConn ~ 9350 4700
NoConn ~ 9350 4800
NoConn ~ 9350 4900
NoConn ~ 9350 5050
NoConn ~ 9350 5150
NoConn ~ 9350 5300
NoConn ~ 9350 5450
NoConn ~ 9350 5550
NoConn ~ 9350 6400
NoConn ~ 9350 6500
NoConn ~ 9350 6600
NoConn ~ 9350 6700
NoConn ~ 9350 6800
NoConn ~ 9350 7750
NoConn ~ 9350 7950
NoConn ~ 9350 8050
NoConn ~ 9350 8150
NoConn ~ 9350 8250
NoConn ~ 9350 8350
NoConn ~ 9350 8450
NoConn ~ 9350 8550
NoConn ~ 9350 8650
NoConn ~ 6650 2300
NoConn ~ 6650 2400
NoConn ~ 6650 2550
NoConn ~ 6650 2650
NoConn ~ 6650 2750
NoConn ~ 6650 2850
NoConn ~ 6650 2950
NoConn ~ 6650 3050
NoConn ~ 6650 3150
NoConn ~ 6650 3250
NoConn ~ 6650 3350
NoConn ~ 6650 3450
NoConn ~ 6650 3550
NoConn ~ 6650 3650
NoConn ~ 6650 3750
NoConn ~ 6650 3850
NoConn ~ 6650 3950
NoConn ~ 6650 4050
NoConn ~ 6650 4150
NoConn ~ 6650 4250
NoConn ~ 6650 4350
NoConn ~ 6650 4450
NoConn ~ 6650 4550
NoConn ~ 6650 4700
NoConn ~ 6650 4800
NoConn ~ 6650 4900
NoConn ~ 6650 5000
NoConn ~ 6650 5100
NoConn ~ 6650 5200
NoConn ~ 6650 5300
NoConn ~ 6650 5400
NoConn ~ 6650 5500
NoConn ~ 6650 5600
NoConn ~ 6650 5700
NoConn ~ 6650 5800
NoConn ~ 6650 5900
NoConn ~ 6650 6000
NoConn ~ 6650 6150
NoConn ~ 6650 6250
NoConn ~ 6650 6350
NoConn ~ 6650 6450
NoConn ~ 6650 6550
NoConn ~ 6650 6650
NoConn ~ 6650 6750
NoConn ~ 6650 6850
NoConn ~ 6650 6950
NoConn ~ 6650 7100
NoConn ~ 6650 7200
NoConn ~ 6650 7300
NoConn ~ 6650 7400
NoConn ~ 6650 7500
NoConn ~ 6650 7600
NoConn ~ 6650 7700
NoConn ~ 6650 7800
NoConn ~ 6650 7900
NoConn ~ 6650 8000
NoConn ~ 6650 8100
NoConn ~ 6650 8250
NoConn ~ 9350 7000
NoConn ~ 9350 7100
Text HLabel 9850 2950 2    60   Input ~ 0
GPIO0_[FUNC0:_GPIO3[0]]
Wire Wire Line
	9350 2950 9850 2950
$Comp
L C C20
U 1 1 59E4D909
P 8300 1200
F 0 "C20" H 8325 1300 50  0000 L CNN
F 1 "100nF" H 8325 1100 50  0000 L CNN
F 2 "Capacitors_SMD:C_0805" H 8338 1050 50  0001 C CNN
F 3 "" H 8300 1200 50  0001 C CNN
	1    8300 1200
	1    0    0    -1  
$EndComp
$Comp
L C C19
U 1 1 59E4DA6D
P 8100 1200
F 0 "C19" H 8125 1300 50  0000 L CNN
F 1 "100nF" H 8125 1100 50  0000 L CNN
F 2 "Capacitors_SMD:C_0805" H 8138 1050 50  0001 C CNN
F 3 "" H 8100 1200 50  0001 C CNN
	1    8100 1200
	1    0    0    -1  
$EndComp
$Comp
L C C18
U 1 1 59E4DABC
P 7900 1200
F 0 "C18" H 7925 1300 50  0000 L CNN
F 1 "100nF" H 7925 1100 50  0000 L CNN
F 2 "Capacitors_SMD:C_0805" H 7938 1050 50  0001 C CNN
F 3 "" H 7900 1200 50  0001 C CNN
	1    7900 1200
	1    0    0    -1  
$EndComp
$Comp
L C C17
U 1 1 59E4DAE2
P 7700 1200
F 0 "C17" H 7725 1300 50  0000 L CNN
F 1 "100nF" H 7725 1100 50  0000 L CNN
F 2 "Capacitors_SMD:C_0805" H 7738 1050 50  0001 C CNN
F 3 "" H 7700 1200 50  0001 C CNN
	1    7700 1200
	1    0    0    -1  
$EndComp
$Comp
L C C16
U 1 1 59E4DB0B
P 7500 1200
F 0 "C16" H 7525 1300 50  0000 L CNN
F 1 "100nF" H 7525 1100 50  0000 L CNN
F 2 "Capacitors_SMD:C_0805" H 7538 1050 50  0001 C CNN
F 3 "" H 7500 1200 50  0001 C CNN
	1    7500 1200
	1    0    0    -1  
$EndComp
$Comp
L C C15
U 1 1 59E4DB4B
P 7300 1200
F 0 "C15" H 7325 1300 50  0000 L CNN
F 1 "100nF" H 7325 1100 50  0000 L CNN
F 2 "Capacitors_SMD:C_0805" H 7338 1050 50  0001 C CNN
F 3 "" H 7300 1200 50  0001 C CNN
	1    7300 1200
	1    0    0    -1  
$EndComp
$Comp
L C C14
U 1 1 59E4DB7A
P 7100 1200
F 0 "C14" H 7125 1300 50  0000 L CNN
F 1 "100nF" H 7125 1100 50  0000 L CNN
F 2 "Capacitors_SMD:C_0805" H 7138 1050 50  0001 C CNN
F 3 "" H 7100 1200 50  0001 C CNN
	1    7100 1200
	1    0    0    -1  
$EndComp
$Comp
L C C13
U 1 1 59E4DBB0
P 6900 1200
F 0 "C13" H 6925 1300 50  0000 L CNN
F 1 "100nF" H 6925 1100 50  0000 L CNN
F 2 "Capacitors_SMD:C_0805" H 6938 1050 50  0001 C CNN
F 3 "" H 6900 1200 50  0001 C CNN
	1    6900 1200
	1    0    0    -1  
$EndComp
$Comp
L C C12
U 1 1 59E4DBE5
P 6700 1200
F 0 "C12" H 6725 1300 50  0000 L CNN
F 1 "100nF" H 6725 1100 50  0000 L CNN
F 2 "Capacitors_SMD:C_0805" H 6738 1050 50  0001 C CNN
F 3 "" H 6700 1200 50  0001 C CNN
	1    6700 1200
	1    0    0    -1  
$EndComp
$Comp
L C C11
U 1 1 59E4DC29
P 6500 1200
F 0 "C11" H 6525 1300 50  0000 L CNN
F 1 "100nF" H 6525 1100 50  0000 L CNN
F 2 "Capacitors_SMD:C_0805" H 6538 1050 50  0001 C CNN
F 3 "" H 6500 1200 50  0001 C CNN
	1    6500 1200
	1    0    0    -1  
$EndComp
$Comp
L C C10
U 1 1 59E4DC64
P 6300 1200
F 0 "C10" H 6325 1300 50  0000 L CNN
F 1 "100nF" H 6325 1100 50  0000 L CNN
F 2 "Capacitors_SMD:C_0805" H 6338 1050 50  0001 C CNN
F 3 "" H 6300 1200 50  0001 C CNN
	1    6300 1200
	1    0    0    -1  
$EndComp
$Comp
L C C9
U 1 1 59E4DCA2
P 6100 1200
F 0 "C9" H 6125 1300 50  0000 L CNN
F 1 "100nF" H 6125 1100 50  0000 L CNN
F 2 "Capacitors_SMD:C_0805" H 6138 1050 50  0001 C CNN
F 3 "" H 6100 1200 50  0001 C CNN
	1    6100 1200
	1    0    0    -1  
$EndComp
$Comp
L GND #PWR029
U 1 1 59E4DCD6
P 8450 650
F 0 "#PWR029" H 8450 400 50  0001 C CNN
F 1 "GND" H 8450 500 50  0000 C CNN
F 2 "" H 8450 650 50  0001 C CNN
F 3 "" H 8450 650 50  0001 C CNN
	1    8450 650 
	1    0    0    -1  
$EndComp
Wire Wire Line
	7300 1350 7300 1600
Wire Wire Line
	6100 1350 6100 1500
Connection ~ 6100 1500
Wire Wire Line
	6300 1350 6300 1500
Connection ~ 6300 1500
Wire Wire Line
	6500 1350 6500 1500
Connection ~ 6500 1500
Wire Wire Line
	6700 1350 6700 1500
Connection ~ 6700 1500
Wire Wire Line
	6900 1350 6900 1500
Connection ~ 6900 1500
Wire Wire Line
	7100 1350 7100 1500
Connection ~ 7100 1500
Wire Wire Line
	8450 650  6100 650 
Wire Wire Line
	6100 650  6100 1050
Wire Wire Line
	6300 1050 6300 650 
Connection ~ 6300 650 
Wire Wire Line
	6500 1050 6500 650 
Connection ~ 6500 650 
Wire Wire Line
	6900 1050 6900 650 
Connection ~ 6900 650 
Wire Wire Line
	6700 1050 6700 650 
Connection ~ 6700 650 
Wire Wire Line
	7100 1050 7100 650 
Connection ~ 7100 650 
Wire Wire Line
	7300 1050 7300 650 
Connection ~ 7300 650 
Wire Wire Line
	7500 1050 7500 650 
Connection ~ 7500 650 
Wire Wire Line
	7700 1050 7700 650 
Connection ~ 7700 650 
Wire Wire Line
	7900 1050 7900 650 
Wire Wire Line
	7900 650  7950 650 
Wire Wire Line
	8100 1050 8100 650 
Connection ~ 8100 650 
Wire Wire Line
	8300 1050 8300 650 
Connection ~ 8300 650 
Connection ~ 7950 650 
$Comp
L C C21
U 1 1 59E4EA59
P 8900 1350
F 0 "C21" H 8925 1450 50  0000 L CNN
F 1 "100nF" H 8925 1250 50  0000 L CNN
F 2 "Capacitors_SMD:C_0805" H 8938 1200 50  0001 C CNN
F 3 "" H 8900 1350 50  0001 C CNN
	1    8900 1350
	1    0    0    -1  
$EndComp
$Comp
L C C22
U 1 1 59E4EAAD
P 9200 1350
F 0 "C22" H 9225 1450 50  0000 L CNN
F 1 "100nF" H 9225 1250 50  0000 L CNN
F 2 "Capacitors_SMD:C_0805" H 9238 1200 50  0001 C CNN
F 3 "" H 9200 1350 50  0001 C CNN
	1    9200 1350
	1    0    0    -1  
$EndComp
Wire Wire Line
	8650 1200 9200 1200
Connection ~ 8650 1200
Connection ~ 8900 1200
$Comp
L GNDA #PWR030
U 1 1 59E4EBC7
P 9200 1600
F 0 "#PWR030" H 9200 1350 50  0001 C CNN
F 1 "GNDA" H 9200 1450 50  0000 C CNN
F 2 "" H 9200 1600 50  0001 C CNN
F 3 "" H 9200 1600 50  0001 C CNN
	1    9200 1600
	1    0    0    -1  
$EndComp
Wire Wire Line
	9200 1600 8900 1600
Wire Wire Line
	8900 1600 8900 1500
Wire Wire Line
	9200 1500 9200 1600
$Comp
L C C8
U 1 1 59E78E9C
P 5650 2200
F 0 "C8" H 5675 2300 50  0000 L CNN
F 1 "100nF" H 5675 2100 50  0000 L CNN
F 2 "Capacitors_SMD:C_0805" H 5688 2050 50  0001 C CNN
F 3 "" H 5650 2200 50  0001 C CNN
	1    5650 2200
	1    0    0    -1  
$EndComp
$Comp
L GND #PWR031
U 1 1 59E78F1C
P 5650 2350
F 0 "#PWR031" H 5650 2100 50  0001 C CNN
F 1 "GND" H 5650 2200 50  0000 C CNN
F 2 "" H 5650 2350 50  0001 C CNN
F 3 "" H 5650 2350 50  0001 C CNN
	1    5650 2350
	1    0    0    -1  
$EndComp
$Comp
L GND #PWR032
U 1 1 59E78F54
P 4500 2250
F 0 "#PWR032" H 4500 2000 50  0001 C CNN
F 1 "GND" H 4500 2100 50  0000 C CNN
F 2 "" H 4500 2250 50  0001 C CNN
F 3 "" H 4500 2250 50  0001 C CNN
	1    4500 2250
	1    0    0    -1  
$EndComp
$Comp
L Battery_Cell BT1
U 1 1 59E78F8C
P 4950 2050
F 0 "BT1" H 5050 2150 50  0000 L CNN
F 1 "Battery_Cell" H 5050 2050 50  0000 L CNN
F 2 "Battery_Holders:Keystone_3034_1x20mm-CoinCell" V 4950 2110 50  0001 C CNN
F 3 "" V 4950 2110 50  0001 C CNN
	1    4950 2050
	0    1    1    0   
$EndComp
Wire Wire Line
	4850 2050 4500 2050
Wire Wire Line
	4500 2050 4500 2250
Wire Wire Line
	5150 2050 6650 2050
Connection ~ 5650 2050
$Comp
L Crystal_GND23 Y1
U 1 1 59E7A8B6
P 4200 8200
F 0 "Y1" H 4325 8400 50  0000 L CNN
F 1 "32.768KHz" H 4325 8325 50  0000 L CNN
F 2 "Crystals:Crystal_SMD_SeikoEpson_MC306-4pin_8.0x3.2mm" H 4200 8200 50  0001 C CNN
F 3 "" H 4200 8200 50  0001 C CNN
	1    4200 8200
	0    1    1    0   
$EndComp
$Comp
L Crystal_GND23 Y2
U 1 1 59E7A913
P 4200 9250
F 0 "Y2" H 4325 9450 50  0000 L CNN
F 1 "12MHz" H 4325 9375 50  0000 L CNN
F 2 "Crystals:Crystal_SMD_2520-4pin_2.5x2.0mm" H 4200 9250 50  0001 C CNN
F 3 "" H 4200 9250 50  0001 C CNN
	1    4200 9250
	0    1    1    0   
$EndComp
$Comp
L C C4
U 1 1 59E7A97B
P 3700 7900
F 0 "C4" H 3725 8000 50  0000 L CNN
F 1 "20p" H 3725 7800 50  0000 L CNN
F 2 "Capacitors_SMD:C_0805" H 3738 7750 50  0001 C CNN
F 3 "" H 3700 7900 50  0001 C CNN
	1    3700 7900
	0    1    1    0   
$EndComp
$Comp
L C C5
U 1 1 59E7AA46
P 3700 8450
F 0 "C5" H 3725 8550 50  0000 L CNN
F 1 "20p" H 3725 8350 50  0000 L CNN
F 2 "Capacitors_SMD:C_0805" H 3738 8300 50  0001 C CNN
F 3 "" H 3700 8450 50  0001 C CNN
	1    3700 8450
	0    1    1    0   
$EndComp
$Comp
L C C6
U 1 1 59E7AAB1
P 3700 9000
F 0 "C6" H 3725 9100 50  0000 L CNN
F 1 "20p" H 3725 8900 50  0000 L CNN
F 2 "Capacitors_SMD:C_0805" H 3738 8850 50  0001 C CNN
F 3 "" H 3700 9000 50  0001 C CNN
	1    3700 9000
	0    1    1    0   
$EndComp
$Comp
L C C7
U 1 1 59E7AB1F
P 3700 9650
F 0 "C7" H 3725 9750 50  0000 L CNN
F 1 "20p" H 3725 9550 50  0000 L CNN
F 2 "Capacitors_SMD:C_0805" H 3738 9500 50  0001 C CNN
F 3 "" H 3700 9650 50  0001 C CNN
	1    3700 9650
	0    1    1    0   
$EndComp
Wire Wire Line
	6650 8350 4950 8350
Wire Wire Line
	4950 8350 4950 7900
Wire Wire Line
	4950 7900 3850 7900
Wire Wire Line
	6650 8450 3850 8450
Wire Wire Line
	4200 8050 4200 7900
Connection ~ 4200 7900
Wire Wire Line
	4200 8350 4200 8450
Connection ~ 4200 8450
Wire Wire Line
	3550 7900 3550 8450
$Comp
L GND #PWR033
U 1 1 59E7AE4F
P 3200 8200
F 0 "#PWR033" H 3200 7950 50  0001 C CNN
F 1 "GND" H 3200 8050 50  0000 C CNN
F 2 "" H 3200 8200 50  0000 C CNN
F 3 "" H 3200 8200 50  0000 C CNN
	1    3200 8200
	1    0    0    -1  
$EndComp
Wire Wire Line
	3200 8200 3550 8200
Connection ~ 3550 8200
NoConn ~ 4000 8200
NoConn ~ 4400 8200
Wire Wire Line
	4400 9250 4600 9250
Wire Wire Line
	4600 9250 4600 9450
Wire Wire Line
	4600 9450 3900 9450
Wire Wire Line
	3900 9450 3900 9250
Wire Wire Line
	3900 9250 4000 9250
Wire Wire Line
	4200 9400 4200 9650
Wire Wire Line
	3850 9650 5650 9650
Wire Wire Line
	3850 9000 5550 9000
Wire Wire Line
	4200 9000 4200 9100
Wire Wire Line
	3550 9000 3550 9650
Wire Wire Line
	3150 9350 3900 9350
Connection ~ 3900 9350
Connection ~ 3550 9350
$Comp
L GND #PWR034
U 1 1 59E7B4EB
P 3150 9400
F 0 "#PWR034" H 3150 9150 50  0001 C CNN
F 1 "GND" H 3150 9250 50  0000 C CNN
F 2 "" H 3150 9400 50  0001 C CNN
F 3 "" H 3150 9400 50  0001 C CNN
	1    3150 9400
	1    0    0    -1  
$EndComp
Wire Wire Line
	3150 9350 3150 9400
$Comp
L R R4
U 1 1 59E7D278
P 4900 9300
F 0 "R4" V 4980 9300 50  0000 C CNN
F 1 "R" V 4900 9300 50  0000 C CNN
F 2 "Resistors_SMD:R_0805" V 4830 9300 50  0001 C CNN
F 3 "" H 4900 9300 50  0001 C CNN
	1    4900 9300
	1    0    0    -1  
$EndComp
Wire Wire Line
	5550 9000 5550 8600
Wire Wire Line
	5550 8600 6650 8600
Connection ~ 4200 9000
Wire Wire Line
	5650 9650 5650 8700
Wire Wire Line
	5650 8700 6650 8700
Connection ~ 4200 9650
Wire Wire Line
	4900 9450 4900 9650
Connection ~ 4900 9650
Wire Wire Line
	4900 9150 4900 9000
Connection ~ 4900 9000
$Comp
L Conn_02x05_Odd_Even J1
U 1 1 59E7EAF9
P 10750 5800
F 0 "J1" H 10800 6100 50  0000 C CNN
F 1 "Cortex Debug" H 10800 5500 50  0000 C CNN
F 2 "Pin_Headers:Pin_Header_Straight_2x05_Pitch1.27mm_SMD" H 10750 5800 50  0001 C CNN
F 3 "" H 10750 5800 50  0001 C CNN
	1    10750 5800
	-1   0    0    1   
$EndComp
Wire Wire Line
	9350 6000 10450 6000
Wire Wire Line
	9900 5800 9350 5800
Wire Wire Line
	10250 6100 9350 6100
Wire Wire Line
	10300 6200 9350 6200
NoConn ~ 10450 5600
$Comp
L +3.3V #PWR035
U 1 1 59E7F24D
P 11400 6000
F 0 "#PWR035" H 11400 5850 50  0001 C CNN
F 1 "+3.3V" H 11400 6140 50  0000 C CNN
F 2 "" H 11400 6000 50  0001 C CNN
F 3 "" H 11400 6000 50  0001 C CNN
	1    11400 6000
	1    0    0    -1  
$EndComp
Wire Wire Line
	11400 6000 10950 6000
NoConn ~ 10950 5700
$Comp
L GND #PWR036
U 1 1 59E7F366
P 11400 5600
F 0 "#PWR036" H 11400 5350 50  0001 C CNN
F 1 "GND" H 11400 5450 50  0000 C CNN
F 2 "" H 11400 5600 50  0001 C CNN
F 3 "" H 11400 5600 50  0001 C CNN
	1    11400 5600
	1    0    0    -1  
$EndComp
Wire Wire Line
	10950 5900 11150 5900
Wire Wire Line
	11150 5900 11150 5600
Wire Wire Line
	10950 5600 11400 5600
Connection ~ 11150 5600
Wire Wire Line
	10950 5800 11150 5800
Connection ~ 11150 5800
Wire Wire Line
	10300 5700 10300 6200
Wire Wire Line
	10250 5800 10250 6100
Wire Wire Line
	10300 5700 10450 5700
Wire Wire Line
	10250 5800 10450 5800
Wire Wire Line
	10450 5900 9900 5900
Wire Wire Line
	9900 5900 9900 5800
$Comp
L Ferrite_Bead L3
U 1 1 59EBD98F
P 8600 10250
F 0 "L3" V 8450 10275 50  0000 C CNN
F 1 "Ferrite_Bead" V 8750 10250 50  0000 C CNN
F 2 "Inductors_SMD:L_0805" V 8530 10250 50  0001 C CNN
F 3 "" H 8600 10250 50  0001 C CNN
	1    8600 10250
	0    1    1    0   
$EndComp
Wire Wire Line
	8400 10250 8450 10250
Wire Wire Line
	8200 9900 8400 9900
Connection ~ 8400 9900
$Comp
L GND #PWR037
U 1 1 59EBDDD0
P 9000 10350
F 0 "#PWR037" H 9000 10100 50  0001 C CNN
F 1 "GND" H 9000 10200 50  0000 C CNN
F 2 "" H 9000 10350 50  0001 C CNN
F 3 "" H 9000 10350 50  0001 C CNN
	1    9000 10350
	1    0    0    -1  
$EndComp
Wire Wire Line
	8750 10250 9000 10250
Wire Wire Line
	9000 10250 9000 10350
$Comp
L Ferrite_Bead L2
U 1 1 59F48488
P 6350 9300
F 0 "L2" V 6200 9325 50  0000 C CNN
F 1 "Ferrite_Bead" V 6500 9300 50  0000 C CNN
F 2 "Inductors_SMD:L_0805" V 6280 9300 50  0001 C CNN
F 3 "" H 6350 9300 50  0001 C CNN
	1    6350 9300
	0    1    1    0   
$EndComp
Wire Wire Line
	6650 8900 6650 9300
Wire Wire Line
	6650 9300 6500 9300
Connection ~ 6650 9000
Wire Wire Line
	5850 9300 6200 9300
Wire Wire Line
	5950 9300 5950 9200
$Comp
L C C23
U 1 1 59F49645
P 5850 9700
F 0 "C23" H 5875 9800 50  0000 L CNN
F 1 "100nF" H 5875 9600 50  0000 L CNN
F 2 "Capacitors_SMD:C_0805" H 5888 9550 50  0001 C CNN
F 3 "" H 5850 9700 50  0001 C CNN
	1    5850 9700
	1    0    0    -1  
$EndComp
$Comp
L C C24
U 1 1 59F499ED
P 6100 9700
F 0 "C24" H 6125 9800 50  0000 L CNN
F 1 "100nF" H 6125 9600 50  0000 L CNN
F 2 "Capacitors_SMD:C_0805" H 6138 9550 50  0001 C CNN
F 3 "" H 6100 9700 50  0001 C CNN
	1    6100 9700
	1    0    0    -1  
$EndComp
Wire Wire Line
	5850 9550 5850 9300
Connection ~ 5950 9300
Wire Wire Line
	6100 9550 6100 9300
Connection ~ 6100 9300
Wire Wire Line
	5850 9850 6100 9850
$Comp
L GNDA #PWR038
U 1 1 59F49FAA
P 5950 10000
F 0 "#PWR038" H 5950 9750 50  0001 C CNN
F 1 "GNDA" H 5950 9850 50  0000 C CNN
F 2 "" H 5950 10000 50  0000 C CNN
F 3 "" H 5950 10000 50  0000 C CNN
	1    5950 10000
	1    0    0    -1  
$EndComp
Wire Wire Line
	5950 9850 5950 10000
Connection ~ 5950 9850
$Comp
L R R5
U 1 1 59F57C9D
P 9650 5450
F 0 "R5" V 9730 5450 50  0000 C CNN
F 1 "10k" V 9650 5450 50  0000 C CNN
F 2 "Resistors_SMD:R_0805" V 9580 5450 50  0001 C CNN
F 3 "" H 9650 5450 50  0001 C CNN
	1    9650 5450
	1    0    0    -1  
$EndComp
$Comp
L R R6
U 1 1 59F57E32
P 9850 5450
F 0 "R6" V 9930 5450 50  0000 C CNN
F 1 "10k" V 9850 5450 50  0000 C CNN
F 2 "Resistors_SMD:R_0805" V 9780 5450 50  0001 C CNN
F 3 "" H 9850 5450 50  0001 C CNN
	1    9850 5450
	1    0    0    -1  
$EndComp
$Comp
L +3.3V #PWR039
U 1 1 59F57FA0
P 9650 5300
F 0 "#PWR039" H 9650 5150 50  0001 C CNN
F 1 "+3.3V" H 9650 5440 50  0000 C CNN
F 2 "" H 9650 5300 50  0000 C CNN
F 3 "" H 9650 5300 50  0000 C CNN
	1    9650 5300
	1    0    0    -1  
$EndComp
$Comp
L +3.3V #PWR040
U 1 1 59F5800E
P 9850 5300
F 0 "#PWR040" H 9850 5150 50  0001 C CNN
F 1 "+3.3V" H 9850 5440 50  0000 C CNN
F 2 "" H 9850 5300 50  0000 C CNN
F 3 "" H 9850 5300 50  0000 C CNN
	1    9850 5300
	1    0    0    -1  
$EndComp
Wire Wire Line
	9350 5700 9650 5700
Wire Wire Line
	9650 5700 9650 5600
Wire Wire Line
	9350 5900 9850 5900
Wire Wire Line
	9850 5900 9850 5600
$Comp
L R R7
U 1 1 59F58470
P 11250 7500
F 0 "R7" V 11330 7500 50  0000 C CNN
F 1 "100k" V 11250 7500 50  0000 C CNN
F 2 "Resistors_SMD:R_0805" V 11180 7500 50  0001 C CNN
F 3 "" H 11250 7500 50  0001 C CNN
	1    11250 7500
	1    0    0    -1  
$EndComp
$Comp
L C C25
U 1 1 59F584EB
P 11250 8050
F 0 "C25" H 11275 8150 50  0000 L CNN
F 1 "100n" H 11275 7950 50  0000 L CNN
F 2 "Capacitors_SMD:C_0805" H 11288 7900 50  0001 C CNN
F 3 "" H 11250 8050 50  0001 C CNN
	1    11250 8050
	1    0    0    -1  
$EndComp
$Comp
L +3.3V #PWR041
U 1 1 59F58617
P 11250 7350
F 0 "#PWR041" H 11250 7200 50  0001 C CNN
F 1 "+3.3V" H 11250 7490 50  0000 C CNN
F 2 "" H 11250 7350 50  0000 C CNN
F 3 "" H 11250 7350 50  0000 C CNN
	1    11250 7350
	1    0    0    -1  
$EndComp
Wire Wire Line
	9350 7600 10500 7600
Wire Wire Line
	10500 7600 10500 7750
Wire Wire Line
	10500 7750 11250 7750
Wire Wire Line
	11250 7650 11250 7900
Connection ~ 11250 7750
$Comp
L GND #PWR042
U 1 1 59F58897
P 11250 8400
F 0 "#PWR042" H 11250 8150 50  0001 C CNN
F 1 "GND" H 11250 8250 50  0000 C CNN
F 2 "" H 11250 8400 50  0001 C CNN
F 3 "" H 11250 8400 50  0001 C CNN
	1    11250 8400
	1    0    0    -1  
$EndComp
Wire Wire Line
	11250 8200 11250 8400
$Comp
L SW_SPST SW1
U 1 1 59F58C2F
P 10700 8100
F 0 "SW1" H 10700 8225 50  0000 C CNN
F 1 "RESET" H 10700 8000 50  0000 C CNN
F 2 "Buttons_Switches_THT:SW_PUSH_6mm" H 10700 8100 50  0001 C CNN
F 3 "" H 10700 8100 50  0001 C CNN
	1    10700 8100
	0    1    1    0   
$EndComp
Wire Wire Line
	10700 7900 10700 7800
Wire Wire Line
	10700 7800 11250 7800
Connection ~ 11250 7800
Wire Wire Line
	10700 8300 10700 8350
Wire Wire Line
	10700 8350 11250 8350
Connection ~ 11250 8350
Text HLabel 9900 3750 2    60   Input ~ 0
GPIO5_[FUNC0:_GPIO3[5]]
Text HLabel 9900 3850 2    60   Input ~ 0
GPIO6_[FUNC0:_GPIO3[6]]
Text HLabel 9900 3950 2    60   Input ~ 0
GPIO7_[FUNC0:_GPIO3[7]]
Wire Wire Line
	9350 3750 9900 3750
Wire Wire Line
	9350 3850 9900 3850
Wire Wire Line
	9350 3950 9900 3950
$EndSCHEMATC
