EESchema Schematic File Version 2
LIBS:tp5-rescue
LIBS:power
LIBS:device
LIBS:transistors
LIBS:conn
LIBS:linear
LIBS:regul
LIBS:74xx
LIBS:cmos4000
LIBS:adc-dac
LIBS:memory
LIBS:xilinx
LIBS:microcontrollers
LIBS:dsp
LIBS:microchip
LIBS:analog_switches
LIBS:motorola
LIBS:texas
LIBS:intel
LIBS:audio
LIBS:interface
LIBS:digital-audio
LIBS:philips
LIBS:display
LIBS:cypress
LIBS:siliconi
LIBS:opto
LIBS:atmel
LIBS:contrib
LIBS:valves
LIBS:lm2596
LIBS:LPC4337JBD144
LIBS:24lc64
LIBS:ESP8266
LIBS:bme280
LIBS:switches
LIBS:ky-040_encoder
LIBS:tp5-cache
EELAYER 25 0
EELAYER END
$Descr A4 11693 8268
encoding utf-8
Sheet 2 5
Title ""
Date ""
Rev ""
Comp ""
Comment1 ""
Comment2 ""
Comment3 ""
Comment4 ""
$EndDescr
$Comp
L LM2596-5.0 U1
U 1 1 57655AE3
P 3650 3050
F 0 "U1" H 3650 3400 60  0000 C CNN
F 1 "LM2575-5.0" H 3650 2700 60  0000 C CNN
F 2 "TO_SOT_Packages_SMD:TO-263-5_TabPin3" H 3650 3050 60  0001 C CNN
F 3 "" H 3650 3050 60  0000 C CNN
	1    3650 3050
	1    0    0    -1  
$EndComp
$Comp
L CP C1
U 1 1 57655BD2
P 2600 3050
F 0 "C1" H 2625 3150 50  0000 L CNN
F 1 "100uF" H 2625 2950 50  0000 L CNN
F 2 "Capacitors_THT:CP_Radial_D8.0mm_P3.50mm" H 2638 2900 50  0001 C CNN
F 3 "" H 2600 3050 50  0000 C CNN
	1    2600 3050
	1    0    0    -1  
$EndComp
Wire Wire Line
	2250 2850 3050 2850
Wire Wire Line
	2600 2900 2600 2850
Connection ~ 2600 2850
$Comp
L GND #PWR06
U 1 1 57655E4A
P 2950 3350
F 0 "#PWR06" H 2950 3100 50  0001 C CNN
F 1 "GND" H 2950 3200 50  0000 C CNN
F 2 "" H 2950 3350 50  0000 C CNN
F 3 "" H 2950 3350 50  0000 C CNN
	1    2950 3350
	1    0    0    -1  
$EndComp
Wire Wire Line
	2950 3050 2950 3350
Wire Wire Line
	2950 3050 3050 3050
Wire Wire Line
	3050 3250 2950 3250
Connection ~ 2950 3250
$Comp
L GND #PWR07
U 1 1 57655E83
P 2600 3200
F 0 "#PWR07" H 2600 2950 50  0001 C CNN
F 1 "GND" H 2600 3050 50  0000 C CNN
F 2 "" H 2600 3200 50  0000 C CNN
F 3 "" H 2600 3200 50  0000 C CNN
	1    2600 3200
	1    0    0    -1  
$EndComp
$Comp
L CP C2
U 1 1 57655E94
P 5200 3550
F 0 "C2" H 5225 3650 50  0000 L CNN
F 1 "330uF" H 5225 3450 50  0000 L CNN
F 2 "Capacitors_THT:CP_Radial_D8.0mm_P3.50mm" H 5238 3400 50  0001 C CNN
F 3 "" H 5200 3550 50  0000 C CNN
	1    5200 3550
	1    0    0    -1  
$EndComp
$Comp
L INDUCTOR_SMALL L1
U 1 1 57655F08
P 4600 3250
F 0 "L1" H 4600 3350 50  0000 C CNN
F 1 "330uH" H 4600 3200 50  0000 C CNN
F 2 "Inductors_SMD:L_12x12mm_h6mm" H 4600 3250 50  0001 C CNN
F 3 "" H 4600 3250 50  0000 C CNN
F 4 "SRR1260-331K" H 4600 3250 60  0001 C CNN "manf#"
	1    4600 3250
	1    0    0    -1  
$EndComp
Wire Wire Line
	4250 3250 4350 3250
Wire Wire Line
	4250 2850 5200 2850
Wire Wire Line
	5200 2850 5200 3400
Wire Wire Line
	4850 3250 5950 3250
Connection ~ 5200 3250
$Comp
L GND #PWR08
U 1 1 57656106
P 5200 3700
F 0 "#PWR08" H 5200 3450 50  0001 C CNN
F 1 "GND" H 5200 3550 50  0000 C CNN
F 2 "" H 5200 3700 50  0000 C CNN
F 3 "" H 5200 3700 50  0000 C CNN
	1    5200 3700
	1    0    0    -1  
$EndComp
$Comp
L D_Schottky D1
U 1 1 5765635B
P 4300 3550
F 0 "D1" H 4300 3650 50  0000 C CNN
F 1 "1N5819" H 4300 3450 50  0000 C CNN
F 2 "Diodes_THT:D_DO-41_SOD81_P10.16mm_Horizontal" H 4300 3550 50  0001 C CNN
F 3 "" H 4300 3550 50  0000 C CNN
	1    4300 3550
	0    1    1    0   
$EndComp
Wire Wire Line
	4300 3400 4300 3250
Connection ~ 4300 3250
$Comp
L GND #PWR09
U 1 1 57656554
P 4300 3700
F 0 "#PWR09" H 4300 3450 50  0001 C CNN
F 1 "GND" H 4300 3550 50  0000 C CNN
F 2 "" H 4300 3700 50  0000 C CNN
F 3 "" H 4300 3700 50  0000 C CNN
	1    4300 3700
	1    0    0    -1  
$EndComp
Text HLabel 2250 2850 0    60   Input ~ 0
Vin
$Comp
L +5V #PWR010
U 1 1 57657040
P 5600 3100
F 0 "#PWR010" H 5600 2950 50  0001 C CNN
F 1 "+5V" H 5600 3240 50  0000 C CNN
F 2 "" H 5600 3100 50  0000 C CNN
F 3 "" H 5600 3100 50  0000 C CNN
	1    5600 3100
	1    0    0    -1  
$EndComp
Wire Wire Line
	5600 3250 5600 3100
$Comp
L LD1117S33TR U2
U 1 1 57657086
P 6350 3300
F 0 "U2" H 6350 3600 50  0000 C CNN
F 1 "LD1117S33TR" H 6350 3500 50  0000 C CNN
F 2 "TO_SOT_Packages_SMD:SOT-223" H 6350 3400 50  0000 C CNN
F 3 "" H 6350 3300 50  0000 C CNN
	1    6350 3300
	1    0    0    -1  
$EndComp
Connection ~ 5600 3250
$Comp
L CP C3
U 1 1 5765716D
P 7100 3600
F 0 "C3" H 7125 3700 50  0000 L CNN
F 1 "10uF" H 7125 3500 50  0000 L CNN
F 2 "Capacitors_THT:CP_Radial_D6.3mm_P2.50mm" H 7138 3450 50  0001 C CNN
F 3 "" H 7100 3600 50  0000 C CNN
	1    7100 3600
	1    0    0    -1  
$EndComp
Wire Wire Line
	7100 3100 7100 3450
$Comp
L GND #PWR011
U 1 1 57657204
P 6350 3550
F 0 "#PWR011" H 6350 3300 50  0001 C CNN
F 1 "GND" H 6350 3400 50  0000 C CNN
F 2 "" H 6350 3550 50  0000 C CNN
F 3 "" H 6350 3550 50  0000 C CNN
	1    6350 3550
	1    0    0    -1  
$EndComp
$Comp
L GND #PWR012
U 1 1 57657224
P 7100 3750
F 0 "#PWR012" H 7100 3500 50  0001 C CNN
F 1 "GND" H 7100 3600 50  0000 C CNN
F 2 "" H 7100 3750 50  0000 C CNN
F 3 "" H 7100 3750 50  0000 C CNN
	1    7100 3750
	1    0    0    -1  
$EndComp
$Comp
L +3.3V #PWR013
U 1 1 5765723F
P 7100 3100
F 0 "#PWR013" H 7100 2950 50  0001 C CNN
F 1 "+3.3V" H 7100 3240 50  0000 C CNN
F 2 "" H 7100 3100 50  0000 C CNN
F 3 "" H 7100 3100 50  0000 C CNN
	1    7100 3100
	1    0    0    -1  
$EndComp
Connection ~ 7100 3250
$Comp
L FILTER FB1
U 1 1 57658162
P 8250 3250
F 0 "FB1" H 8250 3400 50  0000 C CNN
F 1 "Ferrite" H 8250 3150 50  0000 C CNN
F 2 "Inductors_SMD:L_0805" H 8250 3250 50  0001 C CNN
F 3 "" H 8250 3250 50  0000 C CNN
	1    8250 3250
	1    0    0    -1  
$EndComp
$Comp
L FILTER FB2
U 1 1 5765820A
P 8250 3800
F 0 "FB2" H 8250 3950 50  0000 C CNN
F 1 "Ferrite" H 8250 3700 50  0000 C CNN
F 2 "Inductors_SMD:L_0805" H 8250 3800 50  0001 C CNN
F 3 "" H 8250 3800 50  0000 C CNN
	1    8250 3800
	1    0    0    -1  
$EndComp
$Comp
L GND #PWR014
U 1 1 57658253
P 7850 3850
F 0 "#PWR014" H 7850 3600 50  0001 C CNN
F 1 "GND" H 7850 3700 50  0000 C CNN
F 2 "" H 7850 3850 50  0000 C CNN
F 3 "" H 7850 3850 50  0000 C CNN
	1    7850 3850
	1    0    0    -1  
$EndComp
$Comp
L GNDA #PWR015
U 1 1 57658272
P 8700 3850
F 0 "#PWR015" H 8700 3600 50  0001 C CNN
F 1 "GNDA" H 8700 3700 50  0000 C CNN
F 2 "" H 8700 3850 50  0000 C CNN
F 3 "" H 8700 3850 50  0000 C CNN
	1    8700 3850
	1    0    0    -1  
$EndComp
$Comp
L +3.3V #PWR016
U 1 1 5765829F
P 7800 3150
F 0 "#PWR016" H 7800 3000 50  0001 C CNN
F 1 "+3.3V" H 7800 3290 50  0000 C CNN
F 2 "" H 7800 3150 50  0000 C CNN
F 3 "" H 7800 3150 50  0000 C CNN
	1    7800 3150
	1    0    0    -1  
$EndComp
$Comp
L +3.3VADC #PWR017
U 1 1 576582BE
P 8700 3150
F 0 "#PWR017" H 8850 3100 50  0001 C CNN
F 1 "+3.3VADC" H 8700 3250 50  0000 C CNN
F 2 "" H 8700 3150 50  0000 C CNN
F 3 "" H 8700 3150 50  0000 C CNN
	1    8700 3150
	1    0    0    -1  
$EndComp
Wire Wire Line
	8700 3150 8700 3250
Wire Wire Line
	8600 3250 9100 3250
Wire Wire Line
	7800 3150 7800 3250
Wire Wire Line
	7800 3250 7900 3250
$Comp
L PWR_FLAG #FLG018
U 1 1 576EBFE6
P 9100 3200
F 0 "#FLG018" H 9100 3295 50  0001 C CNN
F 1 "PWR_FLAG" H 9100 3380 50  0000 C CNN
F 2 "" H 9100 3200 50  0000 C CNN
F 3 "" H 9100 3200 50  0000 C CNN
	1    9100 3200
	1    0    0    -1  
$EndComp
Wire Wire Line
	9100 3250 9100 3200
Connection ~ 8700 3250
$Comp
L PWR_FLAG #FLG019
U 1 1 576EC97F
P 5800 3000
F 0 "#FLG019" H 5800 3095 50  0001 C CNN
F 1 "PWR_FLAG" H 5800 3180 50  0000 C CNN
F 2 "" H 5800 3000 50  0000 C CNN
F 3 "" H 5800 3000 50  0000 C CNN
	1    5800 3000
	1    0    0    -1  
$EndComp
Wire Wire Line
	5800 3000 5800 3250
Connection ~ 5800 3250
$Comp
L PWR_FLAG #FLG020
U 1 1 576ED748
P 7850 3700
F 0 "#FLG020" H 7850 3795 50  0001 C CNN
F 1 "PWR_FLAG" H 7850 3880 50  0000 C CNN
F 2 "" H 7850 3700 50  0000 C CNN
F 3 "" H 7850 3700 50  0000 C CNN
	1    7850 3700
	1    0    0    -1  
$EndComp
$Comp
L PWR_FLAG #FLG021
U 1 1 576ED76E
P 8700 3700
F 0 "#FLG021" H 8700 3795 50  0001 C CNN
F 1 "PWR_FLAG" H 8700 3880 50  0000 C CNN
F 2 "" H 8700 3700 50  0000 C CNN
F 3 "" H 8700 3700 50  0000 C CNN
	1    8700 3700
	1    0    0    -1  
$EndComp
Wire Wire Line
	8700 3850 8700 3700
Wire Wire Line
	8700 3800 8600 3800
Connection ~ 8700 3800
Wire Wire Line
	7900 3800 7850 3800
Wire Wire Line
	7850 3700 7850 3850
Connection ~ 7850 3800
Wire Wire Line
	7100 3250 6750 3250
$EndSCHEMATC
