EESchema Schematic File Version 2
LIBS:tp5-rescue
LIBS:power
LIBS:device
LIBS:transistors
LIBS:conn
LIBS:linear
LIBS:regul
LIBS:74xx
LIBS:cmos4000
LIBS:adc-dac
LIBS:memory
LIBS:xilinx
LIBS:microcontrollers
LIBS:dsp
LIBS:microchip
LIBS:analog_switches
LIBS:motorola
LIBS:texas
LIBS:intel
LIBS:audio
LIBS:interface
LIBS:digital-audio
LIBS:philips
LIBS:display
LIBS:cypress
LIBS:siliconi
LIBS:opto
LIBS:atmel
LIBS:contrib
LIBS:valves
LIBS:lm2596
LIBS:LPC4337JBD144
LIBS:24lc64
LIBS:ESP8266
LIBS:bme280
LIBS:switches
LIBS:ky-040_encoder
LIBS:tp5-cache
EELAYER 25 0
EELAYER END
$Descr A4 11693 8268
encoding utf-8
Sheet 4 5
Title ""
Date ""
Rev ""
Comp ""
Comment1 ""
Comment2 ""
Comment3 ""
Comment4 ""
$EndDescr
$Comp
L R R8
U 1 1 59F612FD
P 5600 3650
F 0 "R8" V 5680 3650 50  0000 C CNN
F 1 "1k" V 5600 3650 50  0000 C CNN
F 2 "Resistors_SMD:R_0805" V 5530 3650 50  0001 C CNN
F 3 "" H 5600 3650 50  0001 C CNN
	1    5600 3650
	0    1    1    0   
$EndComp
$Comp
L LM358 U7
U 1 1 59F6135C
P 6550 3550
F 0 "U7" H 6550 3750 50  0000 L CNN
F 1 "LM358" H 6550 3350 50  0000 L CNN
F 2 "" H 6550 3550 50  0001 C CNN
F 3 "" H 6550 3550 50  0001 C CNN
	1    6550 3550
	1    0    0    -1  
$EndComp
Wire Wire Line
	6250 3650 5750 3650
$Comp
L R R10
U 1 1 59F6139C
P 7200 3550
F 0 "R10" V 7280 3550 50  0000 C CNN
F 1 "1k" V 7200 3550 50  0000 C CNN
F 2 "Resistors_SMD:R_0805" V 7130 3550 50  0001 C CNN
F 3 "" H 7200 3550 50  0001 C CNN
	1    7200 3550
	0    1    1    0   
$EndComp
$Comp
L GND #PWR043
U 1 1 59F61404
P 6450 4000
F 0 "#PWR043" H 6450 3750 50  0001 C CNN
F 1 "GND" H 6450 3850 50  0000 C CNN
F 2 "" H 6450 4000 50  0001 C CNN
F 3 "" H 6450 4000 50  0001 C CNN
	1    6450 4000
	1    0    0    -1  
$EndComp
Wire Wire Line
	6250 3450 6050 3450
Wire Wire Line
	6050 3450 6050 3950
Wire Wire Line
	6050 3950 6450 3950
Wire Wire Line
	6450 3850 6450 4000
Connection ~ 6450 3950
Wire Wire Line
	5850 3650 5850 4300
Wire Wire Line
	6950 4300 6950 3550
Wire Wire Line
	6850 3550 7050 3550
Connection ~ 5850 3650
Connection ~ 6950 3550
$Comp
L R R9
U 1 1 59F6149A
P 6400 4300
F 0 "R9" V 6480 4300 50  0000 C CNN
F 1 "100k" V 6400 4300 50  0000 C CNN
F 2 "Resistors_SMD:R_0805" V 6330 4300 50  0001 C CNN
F 3 "" H 6400 4300 50  0001 C CNN
	1    6400 4300
	0    1    1    0   
$EndComp
Wire Wire Line
	5850 4300 6250 4300
Wire Wire Line
	6550 4300 6950 4300
$Comp
L C C27
U 1 1 59F61512
P 6800 3150
F 0 "C27" H 6825 3250 50  0000 L CNN
F 1 "100n" H 6825 3050 50  0000 L CNN
F 2 "Capacitors_SMD:C_0805" H 6838 3000 50  0001 C CNN
F 3 "" H 6800 3150 50  0001 C CNN
	1    6800 3150
	0    1    1    0   
$EndComp
$Comp
L GND #PWR044
U 1 1 59F6156E
P 7150 3200
F 0 "#PWR044" H 7150 2950 50  0001 C CNN
F 1 "GND" H 7150 3050 50  0000 C CNN
F 2 "" H 7150 3200 50  0001 C CNN
F 3 "" H 7150 3200 50  0001 C CNN
	1    7150 3200
	1    0    0    -1  
$EndComp
Wire Wire Line
	6950 3150 7150 3150
Wire Wire Line
	7150 3150 7150 3200
Wire Wire Line
	6450 3050 6450 3250
Wire Wire Line
	6450 3150 6650 3150
$Comp
L CP C26
U 1 1 59F61962
P 5300 3650
F 0 "C26" H 5325 3750 50  0000 L CNN
F 1 "10u" H 5325 3550 50  0000 L CNN
F 2 "Capacitors_SMD:C_0805" H 5338 3500 50  0001 C CNN
F 3 "" H 5300 3650 50  0001 C CNN
	1    5300 3650
	0    -1   -1   0   
$EndComp
$Comp
L +5V #PWR045
U 1 1 59F61B30
P 6450 3050
F 0 "#PWR045" H 6450 2900 50  0001 C CNN
F 1 "+5V" H 6450 3190 50  0000 C CNN
F 2 "" H 6450 3050 50  0001 C CNN
F 3 "" H 6450 3050 50  0001 C CNN
	1    6450 3050
	1    0    0    -1  
$EndComp
Connection ~ 6450 3150
$Comp
L +5V #PWR046
U 1 1 59F61DB8
P 4950 3100
F 0 "#PWR046" H 4950 2950 50  0001 C CNN
F 1 "+5V" H 4950 3240 50  0000 C CNN
F 2 "" H 4950 3100 50  0001 C CNN
F 3 "" H 4950 3100 50  0001 C CNN
	1    4950 3100
	1    0    0    -1  
$EndComp
$Comp
L GND #PWR047
U 1 1 59F61ED1
P 4950 4000
F 0 "#PWR047" H 4950 3750 50  0001 C CNN
F 1 "GND" H 4950 3850 50  0000 C CNN
F 2 "" H 4950 4000 50  0001 C CNN
F 3 "" H 4950 4000 50  0001 C CNN
	1    4950 4000
	1    0    0    -1  
$EndComp
Wire Wire Line
	4600 3350 4950 3350
Wire Wire Line
	4950 3350 4950 3100
Wire Wire Line
	4600 3500 4950 3500
Wire Wire Line
	4950 3500 4950 4000
Wire Wire Line
	4600 3650 5150 3650
$Comp
L Hall_Effect_Transistor U6
U 1 1 59FDB787
P 3500 3950
F 0 "U6" H 3650 4250 60  0000 C CNN
F 1 "Hall_Effect_Transistor" H 3950 4100 60  0000 C CNN
F 2 "TO_SOT_Packages_SMD:SOT-89-3" H 3500 3950 60  0001 C CNN
F 3 "" H 3500 3950 60  0001 C CNN
	1    3500 3950
	1    0    0    -1  
$EndComp
Text HLabel 7700 3550 2    60   Input ~ 0
P
Wire Wire Line
	7700 3550 7350 3550
$EndSCHEMATC
